name,scheduled_started_at,scheduled_ended_at
Preliminaries,,,
General Facilities,1/1/2018,15/01/18
Project Insurance and Bond,16/01/18,31/01/18
S.O Accomodation,1/2/2018,7/2/2018
Temporary Work,7/2/2018,28/02/18
Basic Process Design,16/01/18,31/01/18
Mass balance,1/2/2018,7/2/2018
Process and Instrumenation Diagram,7/2/2018,28/02/18
,,,

